id	genre_name	year_released	total_budget	total_revenue	total_profit
28	Action	1900	0	0	0
28	Action	1903	150	0	-150
28	Action	1891	0	0	0
28	Action	1906	0	0	0
28	Action	1909	0	0	0
28	Action	1913	0	0	0
28	Action	1915	0	0	0
28	Action	1916	200000	8000000	7800000
28	Action	1917	0	0	0
28	Action	1920	0	0	0
28	Action	1921	1500000	0	-1500000
28	Action	1922	0	0	0
28	Action	1924	1135654	1213880	78226
28	Action	1925	0	0	0
28	Action	1926	0	0	0
28	Action	1927	2750000	0	-2750000
28	Action	1928	0	0	0
28	Action	1929	550000	0	-550000
28	Action	1930	3950000	8000000	4050000
28	Action	1931	558000	2227000	1669000
28	Action	1932	0	600000	600000
28	Action	1933	922000	10000000	9078000
28	Action	1934	95	0	-95
28	Action	1935	0	0	0
28	Action	1936	1200000	2736000	1536000
28	Action	1937	2000000	153936	-1846064
28	Action	1938	2033000	3981000	1948000
28	Action	1939	0	0	0
28	Action	1940	0	0	0
28	Action	1941	1500000	16361885	14861885
28	Action	1942	0	0	0
28	Action	1943	0	0	0
28	Action	1944	0	3650000	3650000
28	Action	1945	0	0	0
28	Action	1946	0	0	0
28	Action	1947	0	0	0
28	Action	1948	5043000	7148088	2105088
28	Action	1949	1000094	11025000	10024906
28	Action	1950	3768785	8000000	4231215
28	Action	1951	1915000	0	-1915000
28	Action	1952	8855000	42746000	33891000
28	Action	1953	2805000	4905000	2100000
28	Action	1954	9820000	271841	-9548159
28	Action	1955	4066000	710226	-3355774
28	Action	1956	8620000	47250000	38630000
28	Action	1957	9000000	0	-9000000
28	Action	1958	7330000	0	-7330000
28	Action	1959	15075000	153700000	138625000
28	Action	1960	28000000	89650000	61650000
28	Action	1961	16070000	41400000	25330000
28	Action	1962	11763000	109700000	97937000
28	Action	1963	30900006	158898765	127998759
28	Action	1964	12600000	139681062	127081062
28	Action	1965	16905115	171145658	154240543
28	Action	1966	25300000	48335401	23035401
28	Action	1967	35620000	249829505	214209505
28	Action	1968	19400000	111806299	92406299
28	Action	1969	62500000	122053271	59553271
28	Action	1970	72146946	138089442	65942496
28	Action	1971	24050000	305091133	281041133
28	Action	1972	21710254	255595115	233884861
28	Action	1973	13577000	314848431	301271431
28	Action	1974	36180007	420721434	384541427
28	Action	1975	9370000	140603618	131233618
28	Action	1976	19530000	80827910	61297910
28	Action	1977	95209595	1180708766	1085499171
28	Action	1978	96300016	525296337	428996321
28	Action	1979	139600000	576743270	437143270
28	Action	1980	204500000	1163892363	959392363
28	Action	1981	180700000	990653626	809953626
28	Action	1982	121912000	675673526	553761526
28	Action	1983	277850005	1374955385	1097105380
28	Action	1984	352600000	1358094133	1005494133
28	Action	1985	311038722	839720432	528681710
28	Action	1986	231900113	1184391706	952491593
28	Action	1987	317025710	1035829797	718804087
28	Action	1988	388305051	680242697	291937646
28	Action	1989	460005000	1886749466	1426744466
28	Action	1990	630497992	1614172887	983674895
28	Action	1991	826482273	1778204878	951722605
28	Action	1992	613059839	1879380399	1266320560
28	Action	1993	704600180	1820861848	1116261668
28	Action	1994	969300000	2266766528	1297466528
28	Action	1995	1539100050	3321684549	1782584499
28	Action	1996	1325800000	3842514932	2516714932
28	Action	1997	2250751953	4024087222	1773335269
28	Action	1998	1748537300	3067472814	1318935514
28	Action	1999	1768529030	3372046939	1603517909
28	Action	2000	1934410009	3894127968	1959717959
28	Action	2001	2799409568	5176483492	2377073924
28	Action	2002	2549650000	6607940973	4058290973
28	Action	2003	3017803674	7905446833	4887643159
28	Action	2004	2884899529	6207832826	3322933297
28	Action	2005	2576265398	4684887564	2108622166
28	Action	2006	2903080971	6478280764	3575199793
28	Action	2007	2902131639	6986386766	4084255127
28	Action	2008	3323512488	7922177298	4598664810
28	Action	2009	3569239286	9706352420	6137113134
28	Action	2010	3911947009	7663542499	3751595490
28	Action	2011	4029183628	9467079473	5437895845
28	Action	2012	4125396955	11511359543	7385962588
28	Action	2013	4612879800	11101810118	6488930318
28	Action	2014	4607623661	14642660813	10035037152
28	Action	2015	4067649463	14752829926	10685180463
28	Action	2016	4750478928	12545237341	7794758413
28	Action	2017	3004765492	10374100727	7369335235
28	Action	2018	18000000	0	-18000000
28	Action	2020	0	0	0
28	Action		0	0	0
28	Action	1897	0	0	0
12	Adventure	1982	106112000	1249132217	1143020217
12	Adventure	1903	150	0	-150
12	Adventure	1904	7500	0	-7500
12	Adventure	1910	0	0	0
12	Adventure	1911	0	0	0
12	Adventure	1912	0	0	0
12	Adventure	1916	200000	8000000	7800000
12	Adventure	1919	0	0	0
12	Adventure	1920	0	0	0
12	Adventure	1921	1500000	0	-1500000
12	Adventure	1922	0	0	0
12	Adventure	1923	0	0	0
12	Adventure	1924	1135654	1213880	78226
12	Adventure	1925	923000	2500000	1577000
12	Adventure	1926	3900000	9000000	5100000
12	Adventure	1927	750000	0	-750000
12	Adventure	1928	290337	596551	306214
12	Adventure	1929	0	0	0
12	Adventure	1930	0	0	0
12	Adventure	1931	0	0	0
12	Adventure	1932	200000	600000	400000
12	Adventure	1933	922000	10000000	9078000
12	Adventure	1934	95	0	-95
12	Adventure	1935	1950000	4460000	2510000
12	Adventure	1936	1200000	2736000	1536000
12	Adventure	1937	7645000	0	-7645000
12	Adventure	1938	2033000	3981000	1948000
12	Adventure	1939	3308486	34858724	31550238
12	Adventure	1940	6490331	9172000	2681669
12	Adventure	1941	1144665	0	-1144665
12	Adventure	1942	322000	1040000	718000
12	Adventure	1943	0	0	0
12	Adventure	1944	0	3650000	3650000
12	Adventure	1945	0	0	0
12	Adventure	1946	0	0	0
12	Adventure	1947	0	0	0
12	Adventure	1948	3800000	4307000	507000
12	Adventure	1949	94	0	-94
12	Adventure	1950	0	0	0
12	Adventure	1951	4300000	582750000	578450000
12	Adventure	1952	4855590	6746000	1890410
12	Adventure	1953	5210000	92404651	87194651
12	Adventure	1954	12820000	29500000	16680000
12	Adventure	1955	8300000	0	-8300000
12	Adventure	1956	14900000	65900000	51000000
12	Adventure	1957	1750000	2200000	450000
12	Adventure	1958	5720000	0	-5720000
12	Adventure	1959	15000000	156900000	141900000
12	Adventure	1960	12750000	7900000	-4850000
12	Adventure	1961	11650000	251780014	240130014
12	Adventure	1962	49950000	193275385	143325385
12	Adventure	1963	20336006	194843236	174507230
12	Adventure	1964	3483085	124881062	121397977
12	Adventure	1965	23602318	196478991	172876673
12	Adventure	1966	43292800	67876452	24583652
12	Adventure	1967	48900000	413473117	364573117
12	Adventure	1968	37000000	123095426	86095426
12	Adventure	1969	20104087	82613134	62509047
12	Adventure	1970	63085000	142482818	79397818
12	Adventure	1971	31200000	146041165	114841165
12	Adventure	1972	16070000	148185473	132115473
12	Adventure	1973	9642012	174235836	164593824
12	Adventure	1974	10400000	166272000	155872000
12	Adventure	1975	17900000	576525870	558625870
12	Adventure	1976	32000000	123706355	91706355
12	Adventure	1977	83700000	1240227831	1156527831
12	Adventure	1978	113500005	407199789	293699784
12	Adventure	1979	123300000	681015886	557715886
12	Adventure	1980	130720000	950465481	819745481
12	Adventure	1981	170000000	960912634	790912634
12	Adventure	1983	210830385	1164240310	953409925
12	Adventure	1984	249840000	863129510	613289510
12	Adventure	1985	451615523	1356352097	904736574
12	Adventure	1986	285500113	843671806	558171693
12	Adventure	1987	223200000	583609922	360409922
12	Adventure	1988	242430000	892245720	649815720
12	Adventure	1989	446155000	1814388430	1368233430
12	Adventure	1990	524432500	1762251529	1237819029
12	Adventure	1991	442400000	1285193588	842793588
12	Adventure	1992	347000000	1659777737	1312777737
12	Adventure	1993	529100000	2171221593	1642121593
12	Adventure	1994	444200000	1033915339	589715339
12	Adventure	1995	903000000	2011153692	1108153692
12	Adventure	1996	983530012	3142108730	2158578718
12	Adventure	1997	1569137731	3170588005	1601450274
12	Adventure	1998	1411000000	2901077609	1490077609
12	Adventure	1999	1265500000	3152489413	1886989413
12	Adventure	2000	1519500030	3511022071	1991522041
12	Adventure	2001	1637050000	5203635979	3566585979
12	Adventure	2002	2030700000	6118911270	4088211270
12	Adventure	2003	2147230000	5467468667	3320238667
12	Adventure	2004	2759000001	7299809777	4540809776
12	Adventure	2005	2494610000	6250584354	3755974354
12	Adventure	2006	2883400852	7031933991	4148533139
12	Adventure	2007	2307413025	7029009160	4721596135
12	Adventure	2008	3010300962	6918376658	3908075696
12	Adventure	2009	3554512080	11631710019	8077197939
12	Adventure	2010	3643150000	10156544915	6513394915
12	Adventure	2011	3411908684	10045950494	6634041810
12	Adventure	2012	3586118220	11579148476	7993030256
12	Adventure	2013	3764431594	10851741120	7087309526
12	Adventure	2014	3983363932	13085315807	9101951875
12	Adventure	2015	4138948153	15086996157	10948048004
12	Adventure	2016	4909689653	16342771127	11433081474
12	Adventure	2017	2025446714	6764514189	4739067475
12	Adventure	2018	0	0	0
12	Adventure	2020	0	0	0
12	Adventure		0	0	0
12	Adventure	1902	5985	0	-5985
16	Animation	2006	1156037758	2892444055	1736406297
16	Animation	1924	0	0	0
16	Animation	1925	0	0	0
16	Animation	1926	0	0	0
16	Animation	1928	4986	0	-4986
16	Animation	1929	5485	0	-5485
16	Animation	1930	0	0	0
16	Animation	1931	22996	0	-22996
16	Animation	1932	32742	0	-32742
16	Animation	1933	15719	0	-15719
16	Animation	1934	59264	0	-59264
16	Animation	1935	121212	0	-121212
16	Animation	1936	0	0	0
16	Animation	1937	1572586	184925486	183352900
16	Animation	1938	66260	0	-66260
16	Animation	1939	0	0	0
16	Animation	1940	4880000	167620000	162740000
16	Animation	1941	912000	1600000	688000
16	Animation	1942	858000	267447150	266589150
16	Animation	1943	0	0	0
16	Animation	1944	0	0	0
16	Animation	1945	0	0	0
16	Animation	1946	68	0	-68
16	Animation	1947	0	0	0
16	Animation	1948	2000000	0	-2000000
16	Animation	1949	0	0	0
16	Animation	1950	2900000	263591415	260691415
16	Animation	1951	3000000	572000000	569000000
16	Animation	1952	0	0	0
16	Animation	1953	4000000	87404651	83404651
16	Animation	1954	0	0	0
16	Animation	1955	0	93600000	93600000
16	Animation	1956	0	0	0
16	Animation	1957	0	0	0
16	Animation	1958	0	0	0
16	Animation	1959	6000000	51000000	45000000
16	Animation	1960	0	0	0
16	Animation	1961	4000000	215880014	211880014
16	Animation	1962	0	0	0
16	Animation	1963	3000000	22182353	19182353
16	Animation	1964	0	0	0
16	Animation	1965	0	0	0
16	Animation	1966	315000	0	-315000
16	Animation	1967	4000200	205843612	201843412
16	Animation	1968	0	0	0
16	Animation	1969	0	0	0
16	Animation	1970	4000000	55675257	51675257
16	Animation	1971	20000000	17900000	-2100000
16	Animation	1972	850000	0	-850000
16	Animation	1973	15950000	33556467	17606467
16	Animation	1974	0	0	0
16	Animation	1975	0	0	0
16	Animation	1976	0	0	0
16	Animation	1977	15400000	80215869	64815869
16	Animation	1978	5000000	34185188	29185188
16	Animation	1979	0	0	0
16	Animation	1980	0	2013193	2013193
16	Animation	1981	21348740	36755401	15406661
16	Animation	1982	8560000	21121263	12561263
16	Animation	1983	12200000	33760883	21560883
16	Animation	1984	1000000	3301446	2301446
16	Animation	1985	40000000	25499414	-14500586
16	Animation	1986	29000000	147022473	118022473
16	Animation	1987	18000000	5869638	-12130362
16	Animation	1988	134000000	490933574	356933574
16	Animation	1989	61200000	267572876	206372876
16	Animation	1990	37931000	47431461	9500461
16	Animation	1991	43000000	429773979	386773979
16	Animation	1992	58500000	551991070	493491070
16	Animation	1993	37000000	97150873	60150873
16	Animation	1994	158000000	823128991	665128991
16	Animation	1995	83000000	399048320	316048320
16	Animation	1996	230000000	387880793	157880793
16	Animation	1997	199500000	575732038	376232038
16	Animation	1998	464000250	1364821358	900821108
16	Animation	1999	599998000	1505485381	905487381
16	Animation	2000	569000030	942287131	373287101
16	Animation	2001	646500000	1850495355	1203995355
16	Animation	2002	549000000	1097625410	548625410
16	Animation	2003	368500000	1172304876	803804876
16	Animation	2004	792000000	2997119313	2205119313
16	Animation	2005	493010000	1487990116	994980116
16	Animation	1923	0	0	0
16	Animation	2007	1041500000	3262296745	2220796745
16	Animation	2008	1010429699	2789168523	1778738824
16	Animation	2009	1297350965	3797124026	2499773061
16	Animation	2010	1331367929	4341656836	3010288907
16	Animation	1916	0	0	0
16	Animation	1921	0	0	0
16	Animation	1922	0	0	0
16	Animation	2011	1376350779	3854860371	2478509592
16	Animation	2012	1221777054	4113983994	2892206940
16	Animation	2013	1523309608	5660561218	4137251610
16	Animation	2014	1053920405	3348406920	2294486515
16	Animation	2015	1093690691	4388023943	3294333252
16	Animation	2016	1444531653	6832147910	5387616257
16	Animation	2017	608000000	2563837464	1955837464
16	Animation	2018	0	0	0
16	Animation		0	0	0
16	Animation	1892	0	0	0
16	Animation	1906	0	0	0
16	Animation	1908	0	0	0
16	Animation	1911	0	0	0
16	Animation	1912	0	0	0
16	Animation	1914	0	0	0
16	Animation	1915	5000	0	-5000
2883	Aniplex		0	0	0
7760	BROSTA TV		0	0	0
11176	Carousel Productions		0	0	0
35	Comedy	1910	0	0	0
35	Comedy	1909	0	0	0
35	Comedy	1908	0	0	0
35	Comedy	1907	0	0	0
35	Comedy	1906	0	0	0
35	Comedy	1905	0	0	0
35	Comedy	1904	7500	0	-7500
35	Comedy	1903	0	0	0
35	Comedy	1901	0	0	0
35	Comedy	1900	0	0	0
35	Comedy	1899	0	0	0
35	Comedy	1898	0	0	0
35	Comedy	1896	0	0	0
35	Comedy	1895	0	0	0
35	Comedy	1894	0	0	0
35	Comedy	1892	0	0	0
35	Comedy	1890	0	0	0
35	Comedy	1914	0	0	0
35	Comedy		0	0	0
35	Comedy	2019	12000000	0	-12000000
35	Comedy	2018	18000000	0	-18000000
35	Comedy	2017	1524000659	5270420063	3746419404
35	Comedy	2016	2919002721	9351473401	6432470680
35	Comedy	2015	2224058786	8351154798	6127096012
35	Comedy	2014	2294883692	7488921737	5194038045
35	Comedy	2013	2194847989	6841894387	4647046398
35	Comedy	2012	2724035743	7601999855	4877964112
35	Comedy	2011	3098645105	8193751585	5095106480
35	Comedy	2010	3445306842	7576328966	4131022124
35	Comedy	2009	2860269908	7342087028	4481817120
35	Comedy	2008	2793356659	6883643459	4090286800
35	Comedy	2007	2720331895	7375659643	4655327748
35	Comedy	2006	2607318629	6839668737	4232350108
35	Comedy	2005	2807756007	5944032109	3136276102
35	Comedy	2004	2645259261	5854540201	3209280940
35	Comedy	2003	2147791078	5377172408	3229381330
35	Comedy	2002	2080505159	4647484983	2566979824
35	Comedy	2001	2114807759	4696724230	2581916471
35	Comedy	2000	2304605030	4543106159	2238501129
35	Comedy	1999	2492672332	4413056789	1920384457
35	Comedy	1998	1672659345	3756088675	2083429330
35	Comedy	1997	1296433628	3682408278	2385974650
35	Comedy	1996	1218350012	2439061106	1220711094
35	Comedy	1995	701715006	2150673762	1448958756
35	Comedy	1994	1005637032	2979930066	1974293034
35	Comedy	1993	624625030	2150066652	1525441622
35	Comedy	1992	701740140	2899302574	2197562434
35	Comedy	1991	700416000	1761934366	1061518366
35	Comedy	1990	490999700	2366838406	1875838706
35	Comedy	1989	543445778	2689829040	2146383262
35	Comedy	1988	543367000	2310414466	1767047466
35	Comedy	1987	336855716	1846189395	1509333679
35	Comedy	1986	345300000	1320511270	975211270
35	Comedy	1985	299328199	1317389074	1018060875
35	Comedy	1984	264840000	1445358629	1180518629
35	Comedy	1983	170564005	552335373	381771368
35	Comedy	1982	224551000	681347868	456796868
35	Comedy	1981	130900000	619969881	489069881
35	Comedy	1980	112620000	733722860	621102860
35	Comedy	1979	73689000	562255422	488566422
35	Comedy	1978	20005123	485366470	465361347
35	Comedy	1977	21065000	386843484	365778484
35	Comedy	1976	63625450	171571932	107946482
35	Comedy	1975	17685700	201442956	183757256
35	Comedy	1974	16085000	307264189	291179189
35	Comedy	1973	9297000	319478864	310181864
35	Comedy	1972	7075500	24473453	17397953
35	Comedy	1971	26879000	40733696	13854696
35	Comedy	1970	51606946	230186927	178579981
35	Comedy	1969	58502100	117286920	58784820
35	Comedy	1968	30326000	102750540	72424540
35	Comedy	1967	40512000	112042361	71530361
35	Comedy	1966	8442800	17632354	9189554
35	Comedy	1965	19100800	81225000	62124200
35	Comedy	1964	32060000	136380901	104320901
35	Comedy	1963	17436000	130051970	112615970
35	Comedy	1962	2450000	8000000	5550000
35	Comedy	1961	12560000	234480677	221920677
35	Comedy	1960	7081000	75616000	68535000
35	Comedy	1959	2933848	31800000	28866152
35	Comedy	1958	0	0	0
35	Comedy	1957	500000	0	-500000
35	Comedy	1956	11520000	42000000	30480000
35	Comedy	1955	14000736	7000000	-7000736
35	Comedy	1954	2238813	15000000	12761187
35	Comedy	1953	4161530	12000000	7838470
35	Comedy	1952	4391250	9200000	4808750
35	Comedy	1951	2723903	4500000	1776097
35	Comedy	1950	3768785	8000000	4231215
35	Comedy	1949	5511936	0	-5511936
35	Comedy	1948	2284170	834332	-1449838
35	Comedy	1947	2000000	0	-2000000
35	Comedy	1946	0	0	0
35	Comedy	1945	717	0	-717
35	Comedy	1944	5481175	23192000	17710825
35	Comedy	1943	0	0	0
35	Comedy	1942	3322000	1040000	-2282000
35	Comedy	1941	865665	0	-865665
35	Comedy	1940	2760000	11000000	8240000
35	Comedy	1939	13400685	14149000	748315
35	Comedy	1938	3417736	7433101	4015365
35	Comedy	1937	500762	0	-500762
35	Comedy	1936	1386001	11100000	9713999
35	Comedy	1935	609280	3202831	2593551
35	Comedy	1934	1071408	5923000	4851592
35	Comedy	1933	1286419	7331000	6044581
35	Comedy	1932	0	0	0
35	Comedy	1931	1500000	19181	-1480819
35	Comedy	1930	0	7940	7940
35	Comedy	1929	0	0	0
35	Comedy	1928	9000000	97	-8999903
35	Comedy	1927	1233103	1027757	-205346
35	Comedy	1926	0	0	0
35	Comedy	1925	1243000	2500000	1257000
35	Comedy	1924	212000	0	-212000
35	Comedy	1923	0	623	623
35	Comedy	1922	0	0	0
35	Comedy	1921	250000	2500000	2250000
35	Comedy	1920	0	0	0
35	Comedy	1919	0	0	0
35	Comedy	1918	250000	8000000	7750000
35	Comedy	1917	0	0	0
35	Comedy	1916	0	0	0
35	Comedy	1915	5000	0	-5000
35	Comedy	1912	0	0	0
35	Comedy	1911	0	0	0
80	Crime	1912	0	0	0
80	Crime	1913	0	0	0
80	Crime	1914	0	0	0
80	Crime	1915	0	0	0
80	Crime	1916	0	0	0
80	Crime	1920	107000	0	-107000
80	Crime	1921	0	0	0
80	Crime	1922	0	0	0
80	Crime	1924	0	0	0
80	Crime	1925	103000	704000	601000
80	Crime	1926	0	0	0
80	Crime	1927	12000	0	-12000
80	Crime	1928	75000	1200000	1125000
80	Crime	1929	0	0	0
80	Crime	1930	0	0	0
80	Crime	1931	0	0	0
80	Crime	1932	195845	600000	404155
80	Crime	1933	229	0	-229
80	Crime	1934	226408	1423000	1196592
80	Crime	1935	0	0	0
80	Crime	1936	0	0	0
80	Crime	1937	535575	153936	-381639
80	Crime	1938	0	0	0
80	Crime	1939	1600000	0	-1600000
80	Crime	1940	171200	0	-171200
80	Crime	1941	830000	1000000	170000
80	Crime	1942	0	0	0
80	Crime	1943	275	0	-275
80	Crime	1944	3188175	0	-3188175
80	Crime	1945	1453030	5638000	4184970
80	Crime	1946	0	0	0
80	Crime	1947	4300000	152961	-4147039
80	Crime	1948	5758000	2200000	-3558000
80	Crime	1949	900000	0	-900000
80	Crime	1950	250000	96568	-153432
80	Crime	1951	1200000	7000000	5800000
80	Crime	1952	0	0	0
80	Crime	1953	3963000	32300000	28337000
80	Crime	1954	2310000	12600000	10290000
80	Crime	1955	4707000	13248226	8541226
80	Crime	1956	4020000	12250000	8230000
80	Crime	1957	3000000	9000000	6000000
80	Crime	1958	1725000	2510869	785869
80	Crime	1959	75000	0	-75000
80	Crime	1960	0	0	0
80	Crime	1961	6000000	43656822	37656822
80	Crime	1962	2000000	13129846	11129846
80	Crime	1963	9400000	70878107	61478107
80	Crime	1964	2255161	19551091	17295930
80	Crime	1965	45000	0	-45000
80	Crime	1966	10927800	12000000	1072200
80	Crime	1967	20275000	121544783	101269783
80	Crime	1968	12747000	57455439	44708439
80	Crime	1969	14500000	104058889	89558889
80	Crime	1970	10005000	1500003	-8504997
80	Crime	1971	15419462	99856375	84436913
80	Crime	1972	18182254	421207465	403025211
80	Crime	1973	25492000	378909327	353417327
80	Crime	1974	36725000	181470916	144745916
80	Crime	1975	11590000	130983647	119393647
80	Crime	1976	19395000	135777638	116382638
80	Crime	1977	13774595	26414658	12640063
80	Crime	1978	3680000	91100352	87420352
80	Crime	1979	18476000	118990039	100514039
80	Crime	1980	61500000	229115261	167615261
80	Crime	1981	30062000	98424438	68362438
80	Crime	1982	42300000	139034581	96734581
80	Crime	1983	110500385	285238369	174737984
80	Crime	1984	158400000	615090450	456690450
80	Crime	1985	137500000	298526429	161026429
80	Crime	1986	117511000	294539042	177028042
80	Crime	1987	163300001	845091837	681791836
80	Crime	1988	311137002	890205925	579068923
80	Crime	1989	230345760	769184254	538838494
80	Crime	1990	403431000	1026631828	623200828
80	Crime	1991	398010000	1368076267	970066267
80	Crime	1992	298825545	1228674173	929848628
80	Crime	1993	455818030	1372740388	916922358
80	Crime	1994	496400000	1742590723	1246190723
80	Crime	1995	684019413	2019328660	1335309247
80	Crime	1996	556100000	1054191634	498091634
80	Crime	1997	1060201953	1807224824	747022871
80	Crime	1998	846366000	1419265028	572899028
80	Crime	1999	849888030	2041632820	1191744790
80	Crime	2000	901385100	1886892652	985507552
80	Crime	2001	1402900028	2681804185	1278904157
80	Crime	2002	1162200110	2454488272	1292288162
80	Crime	2003	1017940000	2052900214	1034960214
80	Crime	2004	989650000	1895379786	905729786
80	Crime	2005	996349000	1806624541	810275541
80	Crime	2006	1203025045	2181763804	978738759
80	Crime	2007	1432325000	2481512027	1049187027
80	Crime	2008	1255300000	2927622239	1672322239
80	Crime	2009	1154242567	2240691042	1086448475
80	Crime	2010	1040128196	1538441582	498313386
80	Crime	2011	1046954833	2298448134	1251493301
80	Crime	2012	1051707900	2692147086	1640439186
80	Crime	2013	1633170240	3652918105	2019747865
80	Crime	2014	739174748	1108973747	369798999
80	Crime	2015	1258999494	2893392148	1634392654
80	Crime	2016	984862383	2513016599	1528154216
80	Crime	2017	596634200	2371223801	1774589601
80	Crime	2018	0	0	0
80	Crime		0	0	0
80	Crime	1908	0	0	0
80	Crime	1906	0	0	0
80	Crime	1901	0	0	0
99	Documentary	1974	22500	30000	7500
99	Documentary	1874	0	0	0
99	Documentary	1878	0	0	0
99	Documentary	1883	0	0	0
99	Documentary	1887	0	0	0
99	Documentary	1888	0	0	0
99	Documentary	1890	0	0	0
99	Documentary	1891	0	0	0
99	Documentary	1894	0	0	0
99	Documentary	1895	0	0	0
99	Documentary	1896	0	0	0
99	Documentary	1897	0	0	0
99	Documentary	1898	0	0	0
99	Documentary	1900	0	0	0
99	Documentary	1901	0	0	0
99	Documentary	1903	0	0	0
99	Documentary	1904	0	0	0
99	Documentary	1905	0	0	0
99	Documentary	1909	0	0	0
99	Documentary	1910	0	0	0
99	Documentary	1919	0	0	0
99	Documentary	1922	53000	0	-53000
99	Documentary	1924	0	0	0
99	Documentary	1925	0	0	0
99	Documentary	1926	0	0	0
99	Documentary	1927	0	0	0
99	Documentary	1928	0	0	0
99	Documentary	1929	0	0	0
99	Documentary	1930	0	0	0
99	Documentary	1931	0	0	0
99	Documentary	1933	20000	0	-20000
99	Documentary	1934	0	0	0
99	Documentary	1935	0	0	0
99	Documentary	1936	0	0	0
99	Documentary	1937	0	0	0
99	Documentary	1938	0	0	0
99	Documentary	1939	0	0	0
99	Documentary	1940	0	0	0
99	Documentary	1942	0	0	0
99	Documentary	1943	0	0	0
99	Documentary	1944	0	0	0
99	Documentary	1945	0	0	0
99	Documentary	1946	0	0	0
99	Documentary	1948	0	0	0
99	Documentary	1949	0	0	0
99	Documentary	1950	0	0	0
99	Documentary	1951	3900	0	-3900
99	Documentary	1952	0	0	0
99	Documentary	1953	0	0	0
99	Documentary	1954	0	0	0
99	Documentary	1955	0	0	0
99	Documentary	1956	0	0	0
99	Documentary	1957	0	0	0
99	Documentary	1958	0	0	0
99	Documentary	1959	0	0	0
99	Documentary	1960	0	0	0
99	Documentary	1961	0	0	0
99	Documentary	1962	0	0	0
99	Documentary	1963	250000	0	-250000
99	Documentary	1964	0	0	0
99	Documentary	1965	0	0	0
99	Documentary	1966	0	0	0
99	Documentary	1967	0	0	0
99	Documentary	1968	512000	0	-512000
99	Documentary	1969	0	0	0
99	Documentary	1970	600000	34505135	33905135
99	Documentary	1971	679000	0	-679000
99	Documentary	1972	0	0	0
99	Documentary	1973	0	0	0
99	Documentary	1975	0	0	0
99	Documentary	1976	54000	0	-54000
99	Documentary	1977	1030000	0	-1030000
99	Documentary	1978	155000	321952	166952
99	Documentary	1979	2000000	0	-2000000
99	Documentary	1980	0	0	0
99	Documentary	1981	5600000	2028612	-3571388
99	Documentary	1982	5000000	3814909	-1185091
99	Documentary	1983	58000	30878	-27122
99	Documentary	1984	1330000	4978922	3648922
99	Documentary	1985	62500	0	-62500
99	Documentary	1986	0	0	0
99	Documentary	1987	222000	0	-222000
99	Documentary	1988	2500000	737670	-1762330
99	Documentary	1989	160000	7476500	7316500
99	Documentary	1990	500000	4049443	3549443
99	Documentary	1991	4	29	25
99	Documentary	1992	4000000	0	-4000000
99	Documentary	1993	517000	449707	-67293
99	Documentary	1994	700000	11005306	10305306
99	Documentary	1995	500000	87600001	87100001
99	Documentary	1996	0	4701588	4701588
99	Documentary	1997	8500000	2095403	-6404597
99	Documentary	1998	891000	76738481	75847481
99	Documentary	1999	3054298	6332271	3277973
99	Documentary	2000	0	24277791	24277791
99	Documentary	2001	36666397	22291080	-14375317
99	Documentary	2002	13340000	104820505	91480505
99	Documentary	2003	13825768	48120052	34294284
99	Documentary	2004	3528111	48039695	44511584
99	Documentary	2005	17030056	142557267	125527211
99	Documentary	2006	21658130	122403504	100745374
99	Documentary	2007	59914500	159261078	99346578
99	Documentary	2008	16234298	12182947	-4051351
99	Documentary	2009	94444330	43231058	-51213272
99	Documentary	2010	35680423	151215379	115534956
99	Documentary	2011	38998341	160783702	121785361
99	Documentary	2012	21322354	70478449	49156095
99	Documentary	2013	19195396	36323354	17127958
99	Documentary	2014	3798285	7260262	3461977
99	Documentary	2015	23233452	32509178	9275726
99	Documentary	2016	7696594	16405344	8708750
99	Documentary	2017	1280628	471126	-809502
99	Documentary		120020	0	-120020
18	Drama	1964	55118246	123243860	68125614
18	Drama	1989	455409198	1698822322	1243413124
18	Drama	1988	445394053	1687370481	1241976428
18	Drama	1987	372600001	1361805547	989205546
18	Drama	1986	306014552	993585096	687570544
18	Drama	1985	366410000	1141063526	774653526
18	Drama	1984	332886964	738897805	406010841
18	Drama	1983	164900685	671609299	506708614
18	Drama	1982	269712000	842673789	572961789
18	Drama	1981	211434884	701074795	489639911
18	Drama	1980	169454528	377990472	208535944
18	Drama	1979	141226000	997963472	856737472
18	Drama	1978	82022129	247273440	165251311
18	Drama	1977	107629595	759806524	652176929
18	Drama	1976	63891000	558448718	494557718
18	Drama	1975	52335700	264440622	212104922
18	Drama	1974	59290007	344605485	285315478
18	Drama	1973	34679500	899707280	865027780
18	Drama	1972	36431000	373141823	336710823
18	Drama	1971	31324600	274683536	243358936
18	Drama	1970	138486097	544620369	406134272
18	Drama	1969	108310000	235597794	127287794
18	Drama	1968	77018000	306088358	229070358
18	Drama	1967	39635000	375387731	335752731
18	Drama	1966	172310125	129609847	-42700278
18	Drama	1965	47140800	435597982	388457182
18	Drama	1963	55945300	103272899	47327599
18	Drama	1962	52379167	163029748	110650581
18	Drama	1961	36377000	140640829	104263829
18	Drama	1960	34957948	190566000	155608052
18	Drama	1959	36775000	171916000	135141000
18	Drama	1958	13495000	23081193	9586193
18	Drama	1957	23867000	42152045	18285045
18	Drama	1956	49910000	241080215	191170215
18	Drama	1955	11055001	19884595	8829594
18	Drama	1954	41768583	129786259	88017676
18	Drama	1953	15704530	99905000	84200470
18	Drama	1952	10588000	42811428	32223428
18	Drama	1951	18909955	54350000	35440045
18	Drama	1950	3402000	5160031	1758031
18	Drama	1949	8200694	22525000	14324306
18	Drama	1948	14468428	10544132	-3924296
18	Drama	1947	6724000	7952961	1228961
18	Drama	1946	7655000	57758866	50103866
18	Drama	1945	9315037	57018386	47703349
18	Drama	1944	16227265	31813000	15585735
18	Drama	1943	3000000	0	-3000000
18	Drama	1942	4417000	299780650	295363650
18	Drama	1941	4639392	45579559	40940167
18	Drama	1940	4798000	15172000	10374000
18	Drama	1939	17635797	412046459	394410662
18	Drama	1938	3250000	4000000	750000
18	Drama	1937	6180575	153936	-6026639
18	Drama	1936	6783001	19804000	13020999
18	Drama	1935	3345000	6849000	3504000
18	Drama	1934	1847095	1120000	-727095
18	Drama	1933	3836642	20240000	16403358
18	Drama	1932	895845	3194000	2298155
18	Drama	1931	2933000	14246181	11313181
18	Drama	1930	5200340	8007940	2807600
18	Drama	1929	701000	4358000	3657000
18	Drama	1928	10300337	2717648	-7582689
18	Drama	1927	98734103	1678300	-97055803
18	Drama	1926	4736455	10624878	5888423
18	Drama	1925	1271592	25249101	23977509
18	Drama	1924	1854537	1213880	-640657
18	Drama	1923	350000	0	-350000
18	Drama	1922	1100000	400200	-699800
18	Drama	1921	250000	2500000	2250000
18	Drama	1920	107000	0	-107000
18	Drama	1919	42	0	-42
18	Drama	1918	250000	8000000	7750000
18	Drama	1917	0	0	0
18	Drama	1916	8594751	8000000	-594751
18	Drama	1915	140741	11137365	10996624
18	Drama	1914	210	0	-210
18	Drama	1913	0	0	0
18	Drama	1912	0	0	0
18	Drama	1911	0	0	0
18	Drama	1910	0	0	0
18	Drama	1909	0	0	0
18	Drama	1906	0	0	0
18	Drama	1905	37	0	-37
18	Drama	1904	0	0	0
18	Drama	1901	0	0	0
18	Drama	1900	0	0	0
18	Drama	1898	0	0	0
18	Drama	1897	0	0	0
18	Drama	1896	0	0	0
18	Drama	1893	0	0	0
18	Drama	2017	1226005209	2857403872	1631398663
18	Drama	2016	3187050090	7688325453	4501275363
18	Drama	2015	2821625734	8266756972	5445131238
18	Drama	2014	2916613328	6796753596	3880140268
18	Drama	2013	3081921351	6929523313	3847601962
18	Drama	2012	2907780221	8109797194	5202016973
18	Drama	2011	2898603851	5543458661	2644854810
18	Drama	2010	3500151849	6548377493	3048225644
18	Drama	2009	3111614165	6110718734	2999104569
18	Drama	2018	0	0	0
18	Drama		0	10	10
18	Drama	2019	12000000	0	-12000000
18	Drama	2008	3298012825	7087186931	3789174106
18	Drama	2007	2946637541	5746031341	2799393800
18	Drama	2006	3356569733	6062488756	2705919023
18	Drama	2005	3231135274	6423723578	3192588304
18	Drama	2004	2639384716	5654845930	3015461214
18	Drama	2003	1967936039	3191872861	1223936822
18	Drama	2002	2573799291	5406232506	2832433215
18	Drama	2001	1967154829	3237350184	1270195355
18	Drama	2000	2576080230	4367313369	1791233139
18	Drama	1999	2791427332	5373505334	2582078002
18	Drama	1998	2070742159	3553892623	1483150464
18	Drama	1997	1901802125	4501211852	2599409727
18	Drama	1996	2078812063	4046741515	1967929452
18	Drama	1995	1410207463	3896774777	2486567314
18	Drama	1994	1191630152	3489597509	2297967357
18	Drama	1993	1031003672	3827764754	2796761082
18	Drama	1992	714985651	2221905831	1506920180
18	Drama	1991	800977401	1804397128	1003419727
18	Drama	1990	747897692	2394809923	1646912231
10751	Family	2013	1907695000	6284268909	4376573909
10751	Family	2014	1691220005	5119211852	3427991847
10751	Family	2015	1279920069	4927845480	3647925411
10751	Family	2016	2197600000	8704965297	6507365297
10751	Family	2017	812700000	4061491268	3248791268
10751	Family	2018	0	0	0
10751	Family		0	0	0
10751	Family	1983	3000000	126877971	123877971
10751	Family	1984	45540000	101337154	55797154
10751	Family	1985	188000000	503515459	315515459
10751	Family	1986	75000113	380780052	305779939
10751	Family	1987	38000000	211737983	173737983
10751	Family	1988	159300000	898412417	739112417
10751	Family	1989	159300000	1142970965	983670965
10751	Family	1990	146431000	1027004593	880573593
10751	Family	1991	296288000	1010929063	714641063
10751	Family	1992	135000000	1243994340	1108994340
10751	Family	1993	339500030	1312747359	973247329
10751	Family	1994	468580000	1656378475	1187798475
10751	Family	1995	367000000	1469845153	1102845153
10751	Family	1996	603530012	1032069565	428539553
10751	Family	1997	637152731	842460651	205307920
10751	Family	1998	848000000	1737953433	889953433
10751	Family	1999	921000000	1709998579	788998579
10751	Family	2000	949100030	1613764568	664664538
10751	Family	2001	811200000	3320424120	2509224120
10751	Family	2002	969600000	2616691174	1647091174
10751	Family	2003	773800000	2169509562	1395709562
10751	Family	2004	1300500000	3967677379	2667177379
10751	Family	2005	1711550005	4651320181	2939770176
10751	Family	2006	1646100000	3955985017	2309885017
10751	Family	2007	1670349352	5475385787	3805036435
10751	Family	2008	1986628100	4615154742	2628526642
10751	Family	2009	2017230000	5837323675	3820093675
10751	Family	2010	2549585001	8076165012	5526580011
10751	Family	2011	1930136684	6108018359	4177881675
10751	Family	1898	0	0	0
10751	Family	1899	0	0	0
10751	Family	1902	0	0	0
10751	Family	1915	0	0	0
10751	Family	1922	0	0	0
10751	Family	1923	0	0	0
10751	Family	1924	1135654	1213880	78226
10751	Family	1925	0	0	0
10751	Family	1928	0	0	0
10751	Family	1929	0	0	0
10751	Family	1931	0	0	0
10751	Family	1932	0	0	0
10751	Family	1933	424	0	-424
10751	Family	1934	0	0	0
10751	Family	1935	0	0	0
10751	Family	1936	0	0	0
10751	Family	1937	3133423	184925486	181792063
10751	Family	2012	1344789054	4329165084	2984376030
10751	Family	1938	0	0	0
10751	Family	1939	2777000	33754967	30977967
10751	Family	1940	4880000	167620000	162740000
10751	Family	1941	812000	1600000	788000
10751	Family	1942	858000	267447150	266589150
10751	Family	1943	0	0	0
10751	Family	1944	0	0	0
10751	Family	1945	0	21300000	21300000
10751	Family	1946	3180068	9644124	6464056
10751	Family	1947	0	0	0
10751	Family	1948	2000000	0	-2000000
10751	Family	1949	700000	0	-700000
10751	Family	1950	2900000	263591415	260691415
10751	Family	1951	3275000	572000000	568725000
10751	Family	1952	0	0	0
10751	Family	1953	4000000	87404651	83404651
10751	Family	1954	0	0	0
10751	Family	1955	4000000	93600000	89600000
10751	Family	1956	6000000	42000000	36000000
10751	Family	1957	0	0	0
10751	Family	1958	650000	0	-650000
10751	Family	1959	6000000	61000000	55000000
10751	Family	1960	0	0	0
10751	Family	1961	7000000	219880014	212880014
10751	Family	1962	2000000	8000000	6000000
10751	Family	1963	4000000	22182353	18182353
10751	Family	1964	23200000	174343458	151143458
10751	Family	1965	8200000	286214286	278014286
10751	Family	1966	2392800	0	-2392800
10751	Family	1967	22000000	214843612	192843612
10751	Family	1968	20000000	37402877	17402877
10751	Family	1969	24150000	33208099	9058099
10751	Family	1970	4000000	55675257	51675257
10751	Family	1971	23000000	21900000	-1100000
10751	Family	1972	2500000	0	-2500000
10751	Family	1973	15000000	32056467	17056467
10751	Family	1974	0	0	0
10751	Family	1975	65700	20214600	20148900
10751	Family	1976	35000000	35323292	323292
10751	Family	1977	17700000	106320219	88620219
10751	Family	1978	42000000	37442053	-4557947
10751	Family	1979	22700000	150298544	127598544
10751	Family	1980	20000000	41817537	21817537
10751	Family	1981	42048740	116368006	74319266
10751	Family	1982	84316000	927202480	842886480
14	Fantasy	1896	0	0	0
14	Fantasy		0	0	0
14	Fantasy	2020	0	0	0
14	Fantasy	2018	18000000	0	-18000000
14	Fantasy	2017	1148800000	4244020830	3095220830
14	Fantasy	2016	2405701771	7359781172	4954079401
14	Fantasy	2015	1231716148	4633253394	3401537246
14	Fantasy	2014	1876803634	6021028599	4144224965
14	Fantasy	2013	2280490952	5634584731	3354093779
14	Fantasy	2012	1806075000	6323692043	4517617043
14	Fantasy	2011	1579700000	5511331149	3931631149
14	Fantasy	2010	2279565928	6451198176	4171632248
14	Fantasy	2009	1777312619	6515154997	4737842378
14	Fantasy	2008	1860860400	4169346440	2308486040
14	Fantasy	2007	2255500000	6406470346	4150970346
14	Fantasy	2006	1664064910	4027439469	2363374559
14	Fantasy	2005	1328050001	3483427987	2155377986
14	Fantasy	2004	1050400000	3879527673	2829127673
14	Fantasy	2003	1087027000	3481275461	2394248461
14	Fantasy	2002	853434060	3664581836	2811147776
14	Fantasy	2001	904300000	3697498687	2793198687
14	Fantasy	2000	745500000	868348519	122848519
14	Fantasy	1999	985498000	1831422563	845924563
14	Fantasy	1998	698011791	999469435	301457644
14	Fantasy	1997	557637731	1221380483	663742752
14	Fantasy	1996	582000012	1054469174	472469162
14	Fantasy	1995	445500008	1367691358	922191350
14	Fantasy	1994	393300000	1209019589	815719589
14	Fantasy	1993	265100030	470647146	205547116
14	Fantasy	1992	279439832	1215193355	935753523
14	Fantasy	1991	229788000	924538982	694750982
14	Fantasy	1990	206505500	787335962	580830462
14	Fantasy	1989	145487000	831429571	685942571
14	Fantasy	1988	186155000	670193893	484038893
14	Fantasy	1987	73800000	359177842	285377842
14	Fantasy	1986	128100000	123212172	-4887828
14	Fantasy	1985	219900000	139299010	-80600990
14	Fantasy	1984	173800000	729069389	555269389
14	Fantasy	1983	104200005	171451804	67251799
14	Fantasy	1982	64676000	1012937723	948261723
14	Fantasy	1981	49000000	132535359	83535359
14	Fantasy	1980	94125000	242425965	148300965
14	Fantasy	1979	0	519204	519204
14	Fantasy	1978	83000000	368131491	285131491
14	Fantasy	1977	29975000	175652254	145677254
14	Fantasy	1976	0	0	0
14	Fantasy	1975	2550000	25028948	22478948
14	Fantasy	1974	0	0	0
14	Fantasy	1973	1760012	11000000	9239988
14	Fantasy	1972	5700000	0	-5700000
14	Fantasy	1971	23679000	21900000	-1779000
14	Fantasy	1970	0	0	0
14	Fantasy	1969	3250000	0	-3250000
14	Fantasy	1968	13000000	0	-13000000
14	Fantasy	1967	18000000	9000000	-9000000
14	Fantasy	1966	0	0	0
14	Fantasy	1965	0	0	0
14	Fantasy	1964	6200000	102272727	96072727
14	Fantasy	1963	1350000	1499275	149275
14	Fantasy	1962	0	0	0
14	Fantasy	1961	270000	2000000	1730000
14	Fantasy	1960	750000	0	-750000
14	Fantasy	1959	6000000	61000000	55000000
14	Fantasy	1958	650000	0	-650000
14	Fantasy	1957	152000	2000000	1848000
14	Fantasy	1956	6000000	42000000	36000000
14	Fantasy	1955	0	0	0
14	Fantasy	1954	0	0	0
14	Fantasy	1953	4000000	87404651	83404651
14	Fantasy	1952	0	0	0
14	Fantasy	1951	3275000	572000000	568725000
14	Fantasy	1950	2900000	263591415	260691415
14	Fantasy	1949	94	0	-94
14	Fantasy	1948	784170	834332	50162
14	Fantasy	1947	0	0	0
14	Fantasy	1946	3180000	9644124	6464124
14	Fantasy	1945	0	0	0
14	Fantasy	1944	0	0	0
14	Fantasy	1943	662141	1606624	944483
14	Fantasy	1942	0	0	0
14	Fantasy	1941	5000	0	-5000
14	Fantasy	1940	0	0	0
14	Fantasy	1939	2777000	33754967	30977967
14	Fantasy	1938	0	0	0
14	Fantasy	1937	5988423	184925486	178937063
14	Fantasy	1936	0	0	0
14	Fantasy	1935	0	0	0
14	Fantasy	1934	0	0	0
14	Fantasy	1933	0	0	0
14	Fantasy	1932	0	0	0
14	Fantasy	1930	0	0	0
14	Fantasy	1929	0	0	0
14	Fantasy	1928	0	0	0
14	Fantasy	1926	0	0	0
14	Fantasy	1925	0	0	0
14	Fantasy	1924	1135654	1213880	78226
14	Fantasy	1923	350000	0	-350000
14	Fantasy	1922	0	0	0
14	Fantasy	1921	0	0	0
14	Fantasy	1919	0	0	0
14	Fantasy	1918	0	0	0
14	Fantasy	1917	0	0	0
14	Fantasy	1916	0	0	0
14	Fantasy	1915	0	0	0
14	Fantasy	1912	0	0	0
14	Fantasy	1911	0	0	0
14	Fantasy	1910	0	0	0
14	Fantasy	1909	0	0	0
14	Fantasy	1908	0	0	0
14	Fantasy	1907	0	0	0
14	Fantasy	1906	0	0	0
14	Fantasy	1905	0	0	0
14	Fantasy	1904	7500	0	-7500
14	Fantasy	1903	0	0	0
14	Fantasy	1902	5985	0	-5985
14	Fantasy	1901	0	0	0
14	Fantasy	1900	0	0	0
14	Fantasy	1899	0	0	0
14	Fantasy	1897	0	0	0
14	Fantasy	1898	0	0	0
10769	Foreign	1991	0	1942423	1942423
10769	Foreign	2004	9497525	0	-9497525
10769	Foreign	2005	18073152	33511507	15438355
10769	Foreign	2006	15844825	5535333	-10309492
10769	Foreign	2007	48993763	35342953	-13650810
10769	Foreign	2008	39019120	17010000	-22009120
10769	Foreign	2009	30331367	50076484	19745117
10769	Foreign	2010	21333700	6672589	-14661111
10769	Foreign	2011	37312367	23193494	-14118873
10769	Foreign	2012	11525000	16111606	4586606
10769	Foreign	2013	2888403	0	-2888403
10769	Foreign	2014	0	0	0
10769	Foreign		0	0	0
10769	Foreign	1963	0	0	0
10769	Foreign	1962	0	0	0
10769	Foreign	1993	9500000	3418042	-6081958
10769	Foreign	1961	0	0	0
10769	Foreign	1960	0	0	0
10769	Foreign	1959	0	0	0
10769	Foreign	1998	1570000	570000	-1000000
10769	Foreign	1997	5200000	719063	-4480937
10769	Foreign	1996	0	37598	37598
10769	Foreign	1995	500002	15	-499987
10769	Foreign	1994	0	26900399	26900399
10769	Foreign	1967	0	0	0
10769	Foreign	1966	0	0	0
10769	Foreign	1965	0	0	0
10769	Foreign	1964	0	0	0
10769	Foreign	1999	10900005	22361030	11461025
10769	Foreign	2000	7250003	6023819	-1226184
10769	Foreign	2001	28400000	10500000	-17900000
10769	Foreign	2002	18300050	8853941	-9446109
10769	Foreign	1992	0	0	0
10769	Foreign	2003	4750000	13393823	8643823
10769	Foreign	1968	0	0	0
10769	Foreign	1969	0	0	0
10769	Foreign	1970	0	0	0
10769	Foreign	1971	900000	0	-900000
10769	Foreign	1972	0	0	0
10769	Foreign	1973	0	0	0
10769	Foreign	1974	0	0	0
10769	Foreign	1975	0	0	0
10769	Foreign	1976	0	0	0
10769	Foreign	1977	0	0	0
10769	Foreign	1978	0	631083	631083
10769	Foreign	1979	0	0	0
10769	Foreign	1980	0	0	0
10769	Foreign	1981	2000000	0	-2000000
10769	Foreign	1982	19000000	7241180	-11758820
10769	Foreign	1983	0	0	0
10769	Foreign	1984	0	0	0
10769	Foreign	1985	0	0	0
10769	Foreign	1986	0	0	0
10769	Foreign	1987	222000	1586929	1364929
10769	Foreign	1988	2691051	0	-2691051
10769	Foreign	1989	0	0	0
10769	Foreign	1990	55000000	0	-55000000
7759	GoHands		0	0	0
36	History	1954	9500000	15000000	5500000
36	History	1953	53000	0	-53000
36	History	1952	0	10188	10188
36	History	1951	8250000	30000000	21750000
36	History	1950	0	0	0
36	History	1949	1000000	7800000	6800000
36	History	1948	0	0	0
36	History	1947	0	0	0
36	History	1946	2100000	23650000	21550000
36	History	1945	0	0	0
36	History	1944	2995000	2000000	-995000
36	History	1943	3000000	0	-3000000
36	History	1942	0	0	0
36	History	1941	1400000	16361885	14961885
36	History	1940	0	0	0
36	History	1939	1600000	0	-1600000
36	History	1938	0	0	0
36	History	1937	0	0	0
36	History	1936	1983000	3295000	1312000
36	History	1935	1950000	4460000	2510000
36	History	1934	900000	0	-900000
36	History	1933	1114000	2610000	1496000
36	History	1932	0	0	0
36	History	1931	0	0	0
36	History	1930	3950000	8000000	4050000
36	History	1929	0	0	0
36	History	1928	0	0	0
36	History	1927	2500000	0	-2500000
36	History	1926	0	0	0
36	History	1925	0	45100	45100
36	History	1924	546883	0	-546883
36	History	1922	0	0	0
36	History	1921	0	0	0
36	History	1920	0	0	0
36	History	1919	0	0	0
36	History	1918	0	0	0
36	History	1915	100000	11000000	10900000
36	History	1914	210	0	-210
36	History	1912	0	0	0
36	History	1906	0	0	0
36	History	1897	0	0	0
36	History	1895	0	0	0
36	History	1959	23000000	159100000	136100000
36	History	2012	267570017	554271264	286701247
36	History	2011	309750290	367138572	57388282
36	History	2010	376578934	543347826	166768892
36	History	2009	534653120	598435166	63782046
36	History	2008	243292386	365340042	122047656
36	History	2007	371221570	395264682	24043112
36	History	2006	416900000	489199757	72299757
36	History	2005	548500008	784030122	235530114
36	History	2004	483839750	594850604	111010854
36	History	2003	317780000	631644520	313864520
36	History	2002	424000000	612121911	188121911
36	History	2001	338812153	774840789	436028636
36	History	2000	232105121	288746908	56641787
36	History	1999	179250000	66976317	-112273683
36	History	1998	207000000	965532231	758532231
36	History	1997	171500000	218898755	47398755
36	History	1996	85962051	148167469	62205418
36	History	1995	176000000	234064172	58064172
36	History	1994	18000000	8909086	-9090914
36	History	1993	150125000	426365058	276240058
36	History	1992	156000000	130867163	-25132837
36	History	1991	40000000	206099936	166099936
36	History	1990	0	20710451	20710451
36	History	1989	31910000	34177685	2267685
36	History	1988	16000000	4192440	-11807560
36	History	1987	88800000	148012470	59212470
36	History	1986	82000000	17421805	-64578195
36	History	1985	39500000	4428227	-35071773
36	History	1984	83400000	123874435	40474435
36	History	1983	27000000	49900000	22900000
36	History	1982	22000000	91737889	69737889
36	History	1981	89500000	196095563	106595563
36	History	1980	59000107	45290384	-13709723
36	History	1979	28500000	23438120	-5061880
36	History	1978	1380000	5438927	4058927
36	History	1977	44300000	50750000	6450000
36	History	1976	17500000	70600000	53100000
36	History	1975	18000000	20173742	2173742
36	History	1974	0	0	0
36	History	1973	3000000	43000000	40000000
36	History	1972	3092000	0	-3092000
36	History	1971	0	0	0
36	History	1970	92835000	190664953	97829953
36	History	1969	18000000	102392194	84392194
36	History	1968	7700000	21000000	13300000
36	History	1967	2175000	0	-2175000
36	History	1966	104700000	29271548	-75428452
36	History	1965	25760800	15473333	-10287467
36	History	1964	23100000	12750000	-10350000
36	History	1963	53115000	130344471	77229471
36	History	1962	59000000	183775385	124775385
36	History	1961	3000000	10000000	7000000
36	History	1960	28000000	89650000	61650000
36	History	1958	6680000	0	-6680000
36	History	1957	3000000	27200000	24200000
36	History	1956	13000000	122700000	109700000
36	History	1955	0	0	0
36	History	2015	359945148	622879349	262934201
36	History	2016	541770120	760063391	218293271
36	History	2017	236078886	773465607	537386721
36	History		0	0	0
36	History	2014	279072140	585384880	306312740
36	History	2013	287665000	587496648	299831648
27	Horror		0	0	0
27	Horror	2007	882527700	2217395273	1334867573
27	Horror	2008	309787700	421061948	111274248
27	Horror	2009	554582920	1303984402	749401482
27	Horror	2010	619527500	1325068980	705541480
27	Horror	2011	506217341	958462712	452245371
27	Horror	2012	490033150	1272648480	782615330
27	Horror	1896	0	0	0
27	Horror	1897	0	0	0
27	Horror	1899	0	0	0
27	Horror	1901	0	0	0
27	Horror	1903	0	0	0
27	Horror	1906	0	0	0
27	Horror	1907	0	0	0
27	Horror	1908	0	0	0
27	Horror	1909	0	0	0
27	Horror	1910	0	0	0
27	Horror	1913	0	0	0
27	Horror	1914	0	0	0
27	Horror	1916	0	0	0
27	Horror	1919	0	0	0
27	Horror	1920	107000	0	-107000
27	Horror	1921	0	0	0
27	Horror	1922	0	0	0
27	Horror	1923	350000	0	-350000
27	Horror	1924	0	0	0
27	Horror	1925	0	0	0
27	Horror	1926	0	0	0
27	Horror	1927	369000	0	-369000
27	Horror	1928	0	0	0
27	Horror	1929	0	0	0
27	Horror	1931	646000	13012189	12366189
27	Horror	1932	446000	0	-446000
27	Horror	1933	1250000	10000000	8750000
27	Horror	1934	0	0	0
27	Horror	1935	698927	0	-698927
27	Horror	1936	0	0	0
27	Horror	1938	0	0	0
27	Horror	1939	0	0	0
27	Horror	1940	0	0	0
27	Horror	1941	176000	0	-176000
27	Horror	1942	134000	4000000	3866000
27	Horror	1943	1500000	0	-1500000
27	Horror	1944	0	0	0
27	Horror	1945	0	0	0
27	Horror	1946	375000	0	-375000
27	Horror	1948	0	0	0
27	Horror	1949	686	0	-686
27	Horror	1950	0	0	0
27	Horror	1951	50000	0	-50000
27	Horror	1952	0	0	0
27	Horror	1953	2868000	30800000	27932000
27	Horror	1954	24000000	1300000	-22700000
27	Horror	1955	800000	0	-800000
27	Horror	1956	1292000	0	-1292000
27	Horror	1957	222000	2000000	1778000
27	Horror	1958	1513188	8480000	6966812
27	Horror	1959	610000	0	-610000
27	Horror	1960	1791948	33533957	31742009
27	Horror	1961	200000	2000000	1800000
27	Horror	1962	1837000	1253274	-583726
27	Horror	1963	3071000	16902804	13831804
27	Horror	1964	65000	0	-65000
27	Horror	1965	350000	0	-350000
27	Horror	1966	299379	364937	65558
27	Horror	1967	6065000	11000000	4935000
27	Horror	1968	3314000	63395426	60081426
27	Horror	1969	175000	0	-175000
27	Horror	1970	2357375	0	-2357375
27	Horror	1971	5517000	0	-5517000
27	Horror	1972	3530500	28000000	24469500
27	Horror	1973	11995500	441850621	429855121
27	Horror	1974	935000	30859000	29924000
27	Horror	1975	9059000	583546319	574487319
27	Horror	1976	6710000	94722980	88012980
27	Horror	1977	23972000	97466999	73494999
27	Horror	1978	45336600	408043842	362707242
27	Horror	1979	29712400	301237270	271524870
27	Horror	1980	59950000	209431217	149481217
27	Horror	1981	61771786	172983983	111212197
27	Horror	1982	116615000	266637872	150022872
27	Horror	1983	84025000	259237774	175212774
27	Horror	1984	60615000	321328190	260713190
27	Horror	1985	58850000	141044481	82194481
27	Horror	1986	166629264	451905612	285276348
27	Horror	1987	97778710	563757884	465979174
27	Horror	1988	145263000	313502326	168239326
27	Horror	1989	116067000	235731565	119664565
27	Horror	1990	225234500	425243798	200009298
27	Horror	1991	63050000	261770114	198720114
27	Horror	1992	170640007	556122298	385482291
27	Horror	1993	82310564	121647833	39337269
27	Horror	1994	183450000	387387808	203937808
27	Horror	1995	92850008	184380518	91530510
27	Horror	1996	201700000	341041197	139341197
27	Horror	1997	459180000	967389367	508209367
27	Horror	1998	365450000	489673162	124223162
27	Horror	1999	495060000	849908793	354848793
27	Horror	2000	437335100	595023823	157688723
27	Horror	2001	260100500	625208876	365108376
27	Horror	2002	450176010	1095734519	645558509
27	Horror	2003	297600410	694228817	396628407
27	Horror	2004	555700001	1307863884	752163883
27	Horror	2005	713173006	1644940905	931767899
27	Horror	2006	434687525	1046421518	611733993
27	Horror	2014	294952926	976714417	681761491
27	Horror	2013	495827749	1833584253	1337756504
27	Horror	2015	301760000	976920893	675160893
27	Horror	2016	396065910	1997203967	1601138057
27	Horror	2017	313338816	840731596	527392780
7761	Mardock Scramble Production Committee		0	0	0
10402	Music	1927	0	0	0
10402	Music	1903	0	0	0
10402	Music	1909	0	0	0
10402	Music	1929	1733000	4358000	2625000
10402	Music	1930	0	0	0
10402	Music	1931	0	0	0
10402	Music	1932	0	0	0
10402	Music	1933	439923	2281000	1841077
10402	Music	1934	520000	0	-520000
10402	Music	1935	609000	3202000	2593000
10402	Music	1936	2186000	7873000	5687000
10402	Music	1937	0	0	0
10402	Music	1938	2000000	4000000	2000000
10402	Music	1939	0	0	0
10402	Music	1940	2280000	83320000	81040000
10402	Music	1941	5000	0	-5000
10402	Music	1942	802000	4371000	3569000
10402	Music	1943	2162141	1606624	-555517
10402	Music	1944	7356000	25192000	17836000
10402	Music	1945	0	0	0
10402	Music	1946	68	0	-68
10402	Music	1947	0	0	0
10402	Music	1948	5700000	2956000	-2744000
10402	Music	1949	5511250	0	-5511250
10402	Music	1950	5883785	10039000	4155215
10402	Music	1951	5023903	15500000	10476097
10402	Music	1952	4040800	7200000	3159200
10402	Music	1953	4000000	87404651	83404651
10402	Music	1954	5769770	5000000	-769770
10402	Music	1955	5500000	0	-5500000
10402	Music	1956	7550000	30300000	22750000
10402	Music	1957	0	0	0
10402	Music	1958	6000000	36800000	30800000
10402	Music	1959	7000000	0	-7000000
10402	Music	1960	0	0	0
10402	Music	1961	6000000	43656822	37656822
10402	Music	1962	0	8000000	8000000
10402	Music	1963	0	0	0
10402	Music	1964	17560000	87370399	69810399
10402	Music	1965	9700000	286214286	276514286
10402	Music	1966	4500000	0	-4500000
10402	Music	1967	23000000	60600000	37600000
10402	Music	1968	49820000	103626183	53806183
10402	Music	1969	61000000	84886877	23886877
10402	Music	1970	600000	34505110	33905110
10402	Music	1971	20679000	17900000	-2779000
10402	Music	1972	8500000	0	-8500000
10402	Music	1973	760000	13200000	12440000
10402	Music	1974	0	0	0
10402	Music	1975	15900000	148643844	132743844
10402	Music	1976	6000000	161000000	155000000
10402	Music	1977	6900000	268176222	261276222
10402	Music	1978	42000000	21371005	-20628995
10402	Music	1979	31650000	66998324	35348324
10402	Music	1980	82000000	204884272	122884272
10402	Music	1981	27100000	17199901	-9900099
10402	Music	1982	75200000	124414011	49214011
10402	Music	1983	39100000	195340870	156240870
10402	Music	1984	109730000	244134543	134404543
10402	Music	1985	3000000	14202899	11202899
10402	Music	1986	29000000	72234914	43234914
10402	Music	1987	16553000	268169690	251616690
10402	Music	1988	42500000	13671450	-28828550
10402	Music	1989	17750000	0	-17750000
10402	Music	1990	11000000	19808101	8808101
10402	Music	1991	127200004	448120366	320920362
10402	Music	1992	91000000	771051381	680051381
10402	Music	1993	71000000	130989887	59989887
10402	Music	1994	120	0	-120
10402	Music	1995	10000000	106269971	96269971
10402	Music	1996	106000000	185763838	79763838
10402	Music	1997	57000000	103992425	46992425
10402	Music	1998	138070000	260840146	122770146
10402	Music	1999	107500650	95091685	-12408965
10402	Music	2000	204800000	375959054	171159054
10402	Music	2001	149700000	295343612	145643612
10402	Music	2002	91350000	425584823	334234823
10402	Music	2003	74527000	252355213	177828213
10402	Music	2004	256000000	358493001	102493001
10402	Music	2005	154000000	374093224	220093224
10402	Music	2006	81900000	162594283	80694283
10402	Music	2007	323160004	973360749	650200745
10402	Music	2008	64992000	192861219	127869219
10402	Music	2009	392762100	1016946094	624183994
10402	Music	2010	18100000	9589608	-8510392
10402	Music	2011	176920000	708188192	531268192
10402	Music	2012	218821964	817673820	598851856
10402	Music	2013	160830379	158694882	-2135497
10402	Music	2014	164750100	399795439	235045339
10402	Music	2015	138772360	718775169	580002809
10402	Music	2016	183200000	1115807604	932607604
10402	Music	2017	55000000	443684	-54556316
10402	Music		0	0	0
9648	Mystery	1973	2142000	5058000	2916000
9648	Mystery	1975	7500000	85509599	78009599
9648	Mystery	1976	14840000	104433201	89593201
9648	Mystery	1977	810000	1258003	448003
9648	Mystery	1978	18420000	58606617	40186617
9648	Mystery	1979	51200000	172300000	121100000
9648	Mystery	1980	36500000	94205253	57705253
9648	Mystery	1981	46450000	22973603	-23476397
9648	Mystery	1982	17500000	91783174	74283174
9648	Mystery	1983	37877000	54468815	16591815
9648	Mystery	1984	16000000	96266866	80266866
9648	Mystery	1985	56000000	78556885	22556885
9648	Mystery	1986	48278264	140993955	92715691
9648	Mystery	1987	51200000	389854420	338654420
9648	Mystery	1988	53000002	83668063	30668061
9648	Mystery	1989	34832760	150587687	115754927
9648	Mystery	1990	142500000	862223438	719723438
9648	Mystery	1991	140237401	205713053	65475652
9648	Mystery	1992	172500000	416127567	243627567
9648	Mystery	1993	234385582	1202749603	968364021
9648	Mystery	1994	209500000	515836807	306336807
9648	Mystery	1995	236500000	797865875	561365875
9648	Mystery	1996	401000000	754220741	353220741
9648	Mystery	1997	700270000	1293102203	592832203
9648	Mystery	1998	505060000	657408648	152348648
9648	Mystery	1999	1018560000	2578886717	1560326717
9648	Mystery	2000	272365000	389936069	117571069
9648	Mystery	2001	427000000	706966235	279966235
9648	Mystery	2002	769500000	1925268762	1155768762
9648	Mystery	2003	352500110	714108211	361608101
9648	Mystery	2004	659675000	1637837778	978162778
9648	Mystery	2005	615075000	1014972168	399897168
9648	Mystery	2006	673001850	1525077608	852075758
9648	Mystery	2007	970310000	2918484991	1948174991
9648	Mystery	2008	612535000	1070232746	457697746
9648	Mystery	2009	861445640	2326320148	1464874508
9648	Mystery	2010	796419150	1948899653	1152480503
9648	Mystery	2011	869405086	2089678890	1220273804
9648	Mystery	2012	343564910	606740434	263175524
9648	Mystery	2013	316333000	457339706	141006706
9648	Mystery	2014	443068676	1207077933	764009257
9648	Mystery	2015	555285877	949118974	393833097
9648	Mystery	2016	271780132	1014090766	742310634
9648	Mystery	2017	144307200	733316668	589009468
9648	Mystery		2500000	0	-2500000
9648	Mystery	1971	5357000	2437000	-2920000
9648	Mystery	1972	8931500	47851794	38920294
9648	Mystery	1974	7600000	62054716	54454716
9648	Mystery	1914	0	0	0
9648	Mystery	1916	0	0	0
9648	Mystery	1919	0	0	0
9648	Mystery	1922	0	0	0
9648	Mystery	1924	0	0	0
9648	Mystery	1926	0	0	0
9648	Mystery	1927	0	0	0
9648	Mystery	1928	259000	921000	662000
9648	Mystery	1929	0	0	0
9648	Mystery	1930	0	0	0
9648	Mystery	1931	0	0	0
9648	Mystery	1932	0	0	0
9648	Mystery	1933	0	0	0
9648	Mystery	1934	226408	1423000	1196592
9648	Mystery	1935	305457	831	-304626
9648	Mystery	1936	0	0	0
9648	Mystery	1937	4000000	0	-4000000
9648	Mystery	1938	0	0	0
9648	Mystery	1939	0	0	0
9648	Mystery	1940	1288000	6000000	4712000
9648	Mystery	1941	2493727	28717674	26223947
9648	Mystery	1942	0	0	0
9648	Mystery	1943	275	0	-275
9648	Mystery	1944	4015262	4500000	484738
9648	Mystery	1945	1500000	7000000	5500000
9648	Mystery	1946	0	0	0
9648	Mystery	1947	2300000	0	-2300000
9648	Mystery	1948	1500000	2200000	700000
9648	Mystery	1949	0	596349	596349
9648	Mystery	1950	250000	96568	-153432
9648	Mystery	1951	0	0	0
9648	Mystery	1952	0	0	0
9648	Mystery	1953	658000	23800000	23142000
9648	Mystery	1954	25400000	39764313	14364313
9648	Mystery	1955	4500000	15750000	11250000
9648	Mystery	1956	3700000	12250000	8550000
9648	Mystery	1957	3000000	9000000	6000000
9648	Mystery	1958	2479000	28000000	25521000
9648	Mystery	1959	7000000	13275000	6275000
9648	Mystery	1960	0	0	0
9648	Mystery	1961	0	0	0
9648	Mystery	1962	80030000	97355910	17325910
9648	Mystery	1963	4066500	13474588	9408088
9648	Mystery	1964	2135161	7000000	4864839
9648	Mystery	1965	220000	0	-220000
9648	Mystery	1966	7250000	25000000	17750000
9648	Mystery	1967	2000000	27379978	25379978
9648	Mystery	1968	14447000	102139992	87692992
9648	Mystery	1969	4000000	6000000	2000000
9648	Mystery	1970	13500000	20499743	6999743
17161	Odyssey Media		0	0	0
18012	Pulser Productions		0	0	0
18013	Rogue State		0	0	0
10749	Romance	1969	46250000	54958142	8708142
10749	Romance	1968	36543112	123983756	87440644
10749	Romance	1967	35000000	120266667	85266667
10749	Romance	1966	132200000	54562222	-77637778
10749	Romance	1965	20000000	410139649	390139649
10749	Romance	1964	43740085	87253588	43513503
10749	Romance	1962	2185000	9250000	7065000
10749	Romance	1963	38801000	128674588	89873588
10749	Romance	1961	9660000	22000663	12340663
10749	Romance	1960	7026000	46100000	39074000
10749	Romance	1959	20883848	95000000	74116152
10749	Romance	1958	17229000	82370324	65141324
10749	Romance	1957	5000000	0	-5000000
10749	Romance	1956	23070000	84800000	61730000
10749	Romance	1955	10143000	14850000	4707000
10749	Romance	1954	15478583	13200105	-2278478
10749	Romance	1953	7010000	47405000	40395000
10749	Romance	1952	8623800	45200000	36576200
10749	Romance	1951	14623903	56250000	41626097
10749	Romance	1950	6668785	271591415	264922630
10749	Romance	1949	11811250	11500000	-311250
10749	Romance	1948	6484170	3790332	-2693838
10749	Romance	1947	2000000	7800000	5800000
10749	Romance	1946	4100000	48114742	44014742
10749	Romance	1945	1750000	0	-1750000
10749	Romance	1944	7622000	11013000	3391000
10749	Romance	1943	4500000	0	-4500000
10749	Romance	1942	6346000	29373500	23027500
10749	Romance	1941	689665	0	-689665
10749	Romance	1940	7250331	9172000	1921669
10749	Romance	1939	14212685	402455459	388242774
10749	Romance	1938	8000736	15414101	7413365
10749	Romance	1937	500575	153936	-346639
10749	Romance	1936	4386000	7873000	3487000
10749	Romance	1935	3711280	9101831	5390551
10749	Romance	1934	2692000	5620000	2928000
10749	Romance	1933	2225923	7741000	5515077
10749	Romance	1932	700000	2594000	1894000
10749	Romance	1931	2058000	2246181	188181
10749	Romance	1930	0	7940	7940
10749	Romance	1929	701000	4358000	3657000
10749	Romance	1928	0	0	0
10749	Romance	1927	2700103	1027878	-1672225
10749	Romance	1926	373000	658000	285000
10749	Romance	1896	0	0	0
10749	Romance	1900	0	0	0
10749	Romance	1914	0	0	0
10749	Romance	1915	0	0	0
10749	Romance	1916	0	0	0
10749	Romance	1917	0	0	0
10749	Romance	1918	0	0	0
10749	Romance	1919	42	0	-42
10749	Romance	1920	0	0	0
10749	Romance	1921	1500000	0	-1500000
10749	Romance	1922	0	0	0
10749	Romance	1923	0	623	623
10749	Romance	1924	172000	0	-172000
10749	Romance	1925	348592	22704001	22355409
10749	Romance		0	0	0
10749	Romance	2018	0	0	0
10749	Romance	2017	399977066	1741155677	1341178611
10749	Romance	2016	696926350	2734313966	2037387616
10749	Romance	2015	603495001	1924880197	1321385196
10749	Romance	2014	873007558	2400067355	1527059797
10749	Romance	2013	622611921	1527538563	904926642
10749	Romance	2012	973800576	3061593976	2087793400
10749	Romance	2011	1064236948	3050082022	1985845074
10749	Romance	2010	1613617628	3703866524	2090248896
10749	Romance	2009	1246484438	3510588877	2264104439
10749	Romance	2008	1395836961	4339487036	2943650075
10749	Romance	2007	1034787506	2343541301	1308753795
10749	Romance	2006	1011983216	2119314801	1107331585
10749	Romance	2005	1239936217	3063133188	1823196971
10749	Romance	2004	1279294300	2623794394	1344500094
10749	Romance	2003	716531899	1470059284	753527385
10749	Romance	2002	825865631	1890501099	1064635468
10749	Romance	2001	1490283020	3460407476	1970124456
10749	Romance	2000	1316500009	1929603200	613103191
10749	Romance	1999	1120050001	2127174530	1007124529
10749	Romance	1998	802014778	2318276222	1516261444
10749	Romance	1997	768585450	3095836355	2327250905
10749	Romance	1996	544850000	1277725014	732875014
10749	Romance	1995	598000006	1248928916	650928910
10749	Romance	1994	631130152	2386676258	1755546106
10749	Romance	1993	299900120	857283211	557383091
10749	Romance	1992	294135571	1836886572	1542751001
10749	Romance	1991	235000273	743736252	508735979
10749	Romance	1990	247997992	1222222791	974224799
10749	Romance	1989	162500018	675779101	513279083
10749	Romance	1988	254884000	998441426	743557426
10749	Romance	1987	143480007	973269549	829789542
10749	Romance	1986	96200113	705733785	609533672
10749	Romance	1985	154310000	533342233	379032233
10749	Romance	1984	178900000	540593549	361693549
10749	Romance	1983	84650300	435276815	350626515
10749	Romance	1982	74700000	416084363	341384363
10749	Romance	1981	83848740	290721321	206872581
10749	Romance	1980	65600000	194160491	128560491
10749	Romance	1979	27350000	273921036	246571036
10749	Romance	1978	18242123	251202713	232960590
10749	Romance	1977	4000000	140251535	136251535
10749	Romance	1976	30500000	237079064	206579064
10749	Romance	1975	17650000	21500000	3850000
10749	Romance	1974	13130000	26533200	13403200
10749	Romance	1973	2150012	63344729	61194717
10749	Romance	1972	7850000	36144000	28294000
10749	Romance	1971	13747600	109104330	95356730
10749	Romance	1970	19950000	138900000	118950000
878	Science Fiction	1970	3000000	18999718	15999718
878	Science Fiction	1971	12906000	53751468	40845468
878	Science Fiction	1972	5900000	9700000	3800000
878	Science Fiction	1973	5570000	30789324	25219324
878	Science Fiction	1974	3560000	86273333	82713333
878	Science Fiction	1975	3479000	170892319	167413319
878	Science Fiction	1976	10500000	25000000	14500000
878	Science Fiction	1977	60410000	1139906642	1079496642
878	Science Fiction	1978	64090000	364657551	300567551
878	Science Fiction	1979	115112400	656070270	540957870
878	Science Fiction	1980	138250000	819333358	681083358
878	Science Fiction	1981	45174000	148811584	103637584
878	Science Fiction	1982	145314000	1081122048	935808048
878	Science Fiction	1983	182952005	884581483	701629478
878	Science Fiction	1984	230650000	350626572	119976572
878	Science Fiction	1985	212155523	599894686	387739163
878	Science Fiction	1986	173500000	550812439	377312439
878	Science Fiction	1987	149725710	379299549	229573839
878	Science Fiction	1988	117510000	147691374	30181374
878	Science Fiction	1989	227500000	833350540	605850540
878	Science Fiction	1990	336740000	1012891166	676151166
878	Science Fiction	1991	297250000	794622044	497372044
878	Science Fiction	1992	174000007	455624001	281623994
878	Science Fiction	1993	206500042	1173783654	967283612
878	Science Fiction	1994	344050000	661417239	317367239
878	Science Fiction	1995	493000000	868544961	375544961
878	Science Fiction	1996	656000000	1688515151	1032515151
878	Science Fiction	1997	1115500000	2364738883	1249238883
878	Science Fiction	1998	820150000	1579630393	759480393
878	Science Fiction	1999	1191000000	2607273982	1416273982
878	Science Fiction	2000	1169800000	1438021205	268221205
878	Science Fiction	2001	982600000	1957610978	975010978
878	Science Fiction	2002	1024000060	2722018742	1698018682
878	Science Fiction	2003	1277500000	3097246123	1819746123
878	Science Fiction	2004	1082597810	2183107948	1100510138
878	Science Fiction	2005	945183399	2532066655	1586883256
878	Science Fiction	2006	972339500	1644310056	671970556
878	Science Fiction	2007	752900000	1801148175	1048248175
878	Science Fiction	2008	1492060000	2541579899	1049519899
878	Science Fiction	2009	2619935730	7689710812	5069775082
878	Science Fiction	2010	1077450000	3003548970	1926098970
878	Science Fiction	2011	1748812564	4818581572	3069769008
878	Science Fiction	2012	1874895000	5358957684	3484062684
878	Science Fiction	2013	2277524337	7215480932	4937956595
878	Science Fiction	2014	2231979839	8235700953	6003721114
878	Science Fiction	2015	2489205643	9358065706	6868860063
878	Science Fiction	2016	2072480421	7102474026	5029993605
878	Science Fiction	2017	1512708182	3329742561	1817034379
878	Science Fiction	2018	18000000	0	-18000000
878	Science Fiction	2020	0	0	0
878	Science Fiction		0	0	0
878	Science Fiction	1899	0	0	0
878	Science Fiction	1901	0	0	0
878	Science Fiction	1902	5985	0	-5985
878	Science Fiction	1904	7500	0	-7500
878	Science Fiction	1906	0	0	0
878	Science Fiction	1908	0	0	0
878	Science Fiction	1910	0	0	0
878	Science Fiction	1912	0	0	0
878	Science Fiction	1916	200000	8000000	7800000
878	Science Fiction	1920	0	0	0
878	Science Fiction	1924	0	0	0
878	Science Fiction	1925	0	0	0
878	Science Fiction	1927	92620000	650422	-91969578
878	Science Fiction	1928	0	0	0
878	Science Fiction	1929	0	0	0
878	Science Fiction	1930	0	0	0
878	Science Fiction	1931	291000	12000000	11709000
878	Science Fiction	1932	0	0	0
878	Science Fiction	1933	578000	0	-578000
878	Science Fiction	1934	0	0	0
878	Science Fiction	1935	393750	0	-393750
878	Science Fiction	1936	0	0	0
878	Science Fiction	1938	0	0	0
878	Science Fiction	1939	0	0	0
878	Science Fiction	1940	0	0	0
878	Science Fiction	1941	0	0	0
878	Science Fiction	1942	322000	1040000	718000
878	Science Fiction	1943	0	0	0
878	Science Fiction	1944	0	0	0
878	Science Fiction	1945	0	0	0
878	Science Fiction	1948	784170	834332	50162
878	Science Fiction	1949	94	0	-94
878	Science Fiction	1950	0	0	0
878	Science Fiction	1951	1525000	0	-1525000
878	Science Fiction	1952	0	0	0
878	Science Fiction	1953	2226000	8000000	5774000
878	Science Fiction	1954	29350000	29500000	150000
878	Science Fiction	1955	800000	0	-800000
878	Science Fiction	1956	3192000	3250000	58000
878	Science Fiction	1957	902000	2000000	1098000
878	Science Fiction	1958	1186000	3480000	2294000
878	Science Fiction	1959	110000	0	-110000
878	Science Fiction	1960	1075000	0	-1075000
878	Science Fiction	1961	1580000	7000000	5420000
878	Science Fiction	1962	1262000	0	-1262000
878	Science Fiction	1963	100000	0	-100000
878	Science Fiction	1964	1650000	0	-1650000
878	Science Fiction	1965	1595318	0	-1595318
878	Science Fiction	1966	7290481	12000000	4709519
878	Science Fiction	1967	0	0	0
878	Science Fiction	1968	26250000	105410092	79160092
878	Science Fiction	1969	150000	0	-150000
33751	Sentai Filmworks		0	0	0
10770	TV Movie	1976	0	0	0
10770	TV Movie	1975	0	0	0
10770	TV Movie	1987	0	0	0
10770	TV Movie	1974	0	0	0
10770	TV Movie	1973	0	0	0
10770	TV Movie	1972	450000	0	-450000
10770	TV Movie	1971	0	0	0
10770	TV Movie	1970	0	0	0
10770	TV Movie	1969	0	0	0
10770	TV Movie	1968	0	0	0
10770	TV Movie	1967	0	0	0
10770	TV Movie	1966	0	0	0
10770	TV Movie	1965	0	0	0
10770	TV Movie	1963	0	0	0
10770	TV Movie	1961	0	0	0
10770	TV Movie	2005	6000000	0	-6000000
10770	TV Movie	2004	0	0	0
10770	TV Movie	2003	200000	0	-200000
10770	TV Movie	2002	18300000	0	-18300000
10770	TV Movie	2001	0	0	0
10770	TV Movie	2000	24000000	0	-24000000
10770	TV Movie	1999	0	0	0
10770	TV Movie	1998	0	0	0
10770	TV Movie	1997	0	0	0
10770	TV Movie	1996	12000000	42000000	30000000
10770	TV Movie	1995	0	0	0
10770	TV Movie	1994	1000000	0	-1000000
10770	TV Movie	1993	0	0	0
10770	TV Movie	1992	0	0	0
10770	TV Movie	1991	0	0	0
10770	TV Movie	1990	0	0	0
10770	TV Movie	1981	0	0	0
10770	TV Movie	1989	0	0	0
10770	TV Movie	1988	8000000	0	-8000000
10770	TV Movie	1982	0	0	0
10770	TV Movie	1980	0	0	0
10770	TV Movie	1979	2100000	0	-2100000
10770	TV Movie	1978	0	0	0
10770	TV Movie	2006	13700000	0	-13700000
10770	TV Movie	2008	1999000	0	-1999000
10770	TV Movie	2009	14000000	0	-14000000
10770	TV Movie	1977	0	0	0
10770	TV Movie	1985	7500000	0	-7500000
10770	TV Movie	1984	0	0	0
10770	TV Movie	1983	0	0	0
10770	TV Movie	2007	2000000	0	-2000000
10770	TV Movie	1986	0	0	0
10770	TV Movie		0	0	0
10770	TV Movie	2017	4000000	0	-4000000
10770	TV Movie	2016	1000000	0	-1000000
10770	TV Movie	2015	10200000	0	-10200000
10770	TV Movie	2014	0	0	0
10770	TV Movie	2013	2000000	0	-2000000
10770	TV Movie	2012	28500000	0	-28500000
10770	TV Movie	2011	0	0	0
10770	TV Movie	2010	12500000	0	-12500000
29812	Telescene Film Group Productions		0	0	0
23822	The Cartel		0	0	0
53	Thriller	1909	0	0	0
53	Thriller	1900	0	0	0
53	Thriller	1979	92911000	642395994	549484994
53	Thriller	1978	59750000	433592038	373842038
53	Thriller	1977	76797000	311373128	234576128
53	Thriller	1976	37940000	292247064	254307064
53	Thriller	1975	28550000	589480552	560930552
53	Thriller	1974	47200000	419873369	372673369
53	Thriller	1973	20877000	737909981	717032981
53	Thriller	1972	13792254	120806146	107013892
53	Thriller	1971	32639462	300518791	267879329
53	Thriller	1970	23740000	141989151	118249151
53	Thriller	1969	13500000	90457798	76957798
53	Thriller	1968	12347000	45455439	33108439
53	Thriller	1967	22500000	153204246	130704246
53	Thriller	1966	13300000	41318124	28018124
53	Thriller	1965	11860115	141195658	129335543
53	Thriller	1964	11035161	138681062	127645901
53	Thriller	1963	10280000	104117824	93837824
53	Thriller	1962	82680000	155705910	73025910
53	Thriller	1961	0	0	0
53	Thriller	1960	1976948	33533957	31557009
53	Thriller	1959	7200000	13275000	6075000
53	Thriller	1958	3544000	35510869	31966869
53	Thriller	1957	750000	0	-750000
53	Thriller	1956	2820000	10250000	7430000
53	Thriller	1955	5370000	15750000	10380000
53	Thriller	1954	3650000	39764313	36114313
53	Thriller	1953	4305000	10500000	6195000
53	Thriller	1952	0	0	0
53	Thriller	1951	2450000	7000000	4550000
53	Thriller	1950	0	0	0
53	Thriller	1949	0	596349	596349
53	Thriller	1948	5758000	2200000	-3558000
53	Thriller	1947	0	0	0
53	Thriller	1946	2375000	24464742	22089742
53	Thriller	1945	1500000	7000000	5500000
53	Thriller	1944	2995262	6150000	3154738
53	Thriller	1943	3855275	1200000	-2655275
53	Thriller	1942	134000	4000000	3866000
53	Thriller	1941	1933000	5500000	3567000
53	Thriller	1940	171200	0	-171200
53	Thriller	1939	4668069	0	-4668069
53	Thriller		2500000	0	-2500000
53	Thriller	2018	0	0	0
53	Thriller	2017	1372757200	4199108967	2826351767
53	Thriller	2016	1684482306	3851573588	2167091282
53	Thriller	2015	2140725202	7003388494	4862663292
53	Thriller	2014	1880073203	5629579574	3749506371
53	Thriller	2013	2519514184	5713971771	3194457587
53	Thriller	2012	2422212270	6244693947	3822481677
53	Thriller	2011	2812414282	5790356083	2977941801
53	Thriller	2010	2399950660	4597274348	2197323688
53	Thriller	2009	2540807657	4584338362	2043530705
53	Thriller	2008	2499534357	5461773413	2962239056
53	Thriller	2007	2737112366	5399459648	2662347282
53	Thriller	2006	2905561008	6147427763	3241866755
53	Thriller	2005	1967406000	4081064101	2113658101
53	Thriller	2004	1872562000	4174279724	2301717724
53	Thriller	2003	2494817405	4960714752	2465897347
53	Thriller	2002	2349711044	4225226730	1875515686
53	Thriller	2001	2218997915	4313157351	2094159436
53	Thriller	2000	1901335012	3384628288	1483293276
53	Thriller	1999	1568400023	2794754332	1226354309
53	Thriller	1998	1648303300	2912055046	1263751746
53	Thriller	1997	2611670000	5544544589	2932874589
53	Thriller	1996	1715650000	3265913941	1550263941
53	Thriller	1995	1047854423	2725063908	1677209485
53	Thriller	1994	935900000	2203329993	1267429993
53	Thriller	1993	656285582	2175335206	1519049624
53	Thriller	1992	481525545	2008730969	1527205424
53	Thriller	1991	750082273	2134920506	1384838233
53	Thriller	1990	639697992	2164592925	1524894933
53	Thriller	1989	338630000	974481957	635851957
53	Thriller	1988	344391053	778483182	434092129
53	Thriller	1987	253300000	1145910195	892610195
53	Thriller	1986	118429264	568468656	450039392
53	Thriller	1985	239650000	770185188	530535188
53	Thriller	1984	122165000	457938845	335773845
53	Thriller	1983	241645000	965073021	723428021
53	Thriller	1982	139800000	562019579	422219579
53	Thriller	1981	136162000	476836379	340674379
53	Thriller	1980	74300000	207399126	133099126
53	Thriller	1938	0	0	0
53	Thriller	1937	0	0	0
53	Thriller	1936	0	0	0
53	Thriller	1935	0	0	0
53	Thriller	1934	0	0	0
53	Thriller	1933	0	0	0
53	Thriller	1932	200000	600000	400000
53	Thriller	1931	558000	2227000	1669000
53	Thriller	1930	0	0	0
53	Thriller	1929	550000	0	-550000
53	Thriller	1928	0	0	0
53	Thriller	1927	12000	0	-12000
53	Thriller	1926	0	0	0
53	Thriller	1924	172000	0	-172000
53	Thriller	1923	0	0	0
53	Thriller	1922	0	0	0
53	Thriller	1921	0	0	0
53	Thriller	1920	18000	0	-18000
11602	Vision View Entertainment		0	0	0
10752	War	2004	631323469	1025113787	393790318
10752	War	1897	0	0	0
10752	War	1910	0	0	0
10752	War	1915	100000	11000000	10900000
10752	War	1918	0	0	0
10752	War	1919	0	0	0
10752	War	1921	0	0	0
10752	War	1925	245000	22000000	21755000
10752	War	1926	0	0	0
10752	War	1927	2000000	0	-2000000
10752	War	1928	0	0	0
10752	War	1929	0	0	0
10752	War	1930	1250000	0	-1250000
10752	War	1931	0	0	0
10752	War	1932	0	0	0
10752	War	1933	0	0	0
10752	War	1934	0	0	0
10752	War	1935	0	0	0
10752	War	1936	1200000	2736000	1536000
10752	War	1937	0	0	0
10752	War	1938	0	0	0
10752	War	1939	8668181	400176459	391508278
10752	War	1940	0	0	0
10752	War	1941	1400000	16361885	14961885
10752	War	1942	1666000	14540000	12874000
10752	War	1943	855000	1200000	345000
10752	War	1944	4217000	9013000	4796000
10752	War	1945	0	0	0
10752	War	1946	0	0	0
10752	War	1947	0	0	0
10752	War	1948	0	0	0
10752	War	1949	1000000	11025000	10025000
10752	War	1950	0	0	0
10752	War	1951	2940000	10750000	7810000
10752	War	1952	0	0	0
10752	War	1953	4161530	30500000	26338470
10752	War	1954	2000000	21750000	19750000
10752	War	1955	0	0	0
10752	War	1956	6000000	12500000	6500000
10752	War	1957	3935000	27200000	23265000
10752	War	1958	6000000	36800000	30800000
10752	War	1959	5000000	12200000	7200000
10752	War	1960	4000000	21750000	17750000
10752	War	1961	6000000	28900000	22900000
10752	War	1962	25000000	120095385	95095385
10752	War	1963	4180000	11744471	7564471
10752	War	1964	30700000	28990272	-1709728
10752	War	1965	20560115	111873236	91313121
10752	War	1966	117800000	20921548	-96878452
10752	War	1967	5400000	45300000	39900000
10752	War	1968	14700000	32000000	17300000
10752	War	1969	24000000	741766	-23258234
10752	War	1970	72985097	231059961	158074864
10752	War	1971	0	0	0
10752	War	1972	3000000	0	-3000000
10752	War	1973	0	0	0
10752	War	1974	0	30000	30000
10752	War	1975	11000000	20000000	9000000
10752	War	1976	0	0	0
10752	War	1977	31200000	50750110	19550110
10752	War	1978	34500000	57230000	22730000
10752	War	1979	34600000	104475055	69875055
10752	War	1980	4500107	7206220	2706113
10752	War	1981	52000000	96740000	44740000
10752	War	1982	21000000	126618561	105618561
10752	War	1983	0	0	0
10752	War	1984	27900000	79334049	51434049
10752	War	1985	74410000	311514453	237104453
10752	War	1986	60040000	538090457	478050457
10752	War	1987	65000000	207118146	142118146
10752	War	1988	82700000	208565311	125865311
10752	War	1989	84414000	208922297	124508297
10752	War	1990	33000000	2000000	-31000000
10752	War	1991	26000000	185628955	159628955
10752	War	1992	75000000	88040817	13040817
10752	War	1993	80000120	480118392	400118272
10752	War	1994	70000000	185800406	115800406
10752	War	1995	121000050	225000000	103999950
10752	War	1996	73000000	332837243	259837243
10752	War	1997	16000000	0	-16000000
10752	War	1998	207164790	594685357	387520567
10752	War	1999	110000000	88612976	-21387024
10752	War	2000	292105121	435455999	143350878
10752	War	2001	485000000	827386469	342386469
10752	War	2002	345800000	377610973	31810973
10752	War	2003	311780000	555341175	243561175
10752	War	2005	343900008	393988626	50088618
10752	War	2006	337000000	743379960	406379960
10752	War	2007	95530000	40808453	-54721547
10752	War	2008	296000010	340455540	44455530
10752	War	2009	327015000	629254536	302239536
10752	War	2010	405514125	265777126	-139736999
10752	War	2011	314015485	284641714	-29373771
10752	War	2012	191000000	187200487	-3799513
10752	War	2013	85050300	303545504	218495204
10752	War	2014	517850000	1999676053	1481826053
10752	War	2015	176770773	301725248	124954475
10752	War	2016	430185925	567089190	136903265
10752	War	2017	444749148	1139559610	694810462
10752	War		0	0	0
37	Western	2017	70500000	96442939	25942939
37	Western	2016	137000000	201405363	64405363
37	Western	2015	251800000	688939714	437139714
37	Western	2014	32850000	45512853	12662853
37	Western	2013	267200000	90327300	-176872700
37	Western	2012	105000000	425368238	320368238
37	Western	2011	298054000	421170456	123116456
37	Western	2010	137300000	274779798	137479798
37	Western	2009	39000000	206728	-38793272
37	Western	1968	8255112	26741508	18486396
37	Western	2008	37000000	20211394	-16788606
37	Western	2007	109800000	87453271	-22346729
37	Western	2006	53000000	11692624	-41307376
37	Western	2005	17000000	17084842	84842
37	Western	2004	304500000	133923411	-170576589
37	Western	2003	135500000	156619780	21119780
37	Western	2002	80000000	122563539	42563539
37	Western	2001	35000000	13678913	-21321087
37	Western	2000	112000000	56932305	-55067695
37	Western	1999	225000000	222739777	-2260223
37	Western	1998	0	0	0
37	Western	1997	12000000	0	-12000000
37	Western	1996	0	1705030	1705030
37	Western	1995	71000050	18552460	-52447590
37	Western	1994	71000000	40292435	-30707565
37	Western	1993	60000000	75140685	15140685
37	Western	1992	74000000	296941287	222941287
37	Western	1991	27000000	179033791	152033791
37	Western	1990	42000000	424208848	382208848
37	Western	1989	2800000	0	-2800000
37	Western	1988	13000000	44726644	31726644
37	Western	1987	5800000	257043	-5542957
37	Western	1986	25000000	0	-25000000
37	Western	1985	26000000	41410568	15410568
37	Western	1983	5000000	12232628	7232628
37	Western	1982	3500000	22395546	18895546
37	Western	1981	18000000	2945600	-15054400
37	Western	1980	54000000	19279538	-34720462
37	Western	1979	9200000	71148148	61948148
37	Western	1978	0	0	0
37	Western	1977	0	0	0
37	Western	1976	3700000	39891910	36191910
37	Western	1975	7500000	47620448	40120448
37	Western	1974	4100000	119500000	115400000
37	Western	1973	10138783	26700000	16561217
37	Western	1972	9000000	13830000	4830000
37	Western	1971	245000	0	-245000
37	Western	1970	25116946	41609552	16492606
37	Western	1969	39244087	148876308	109632221
37	Western	1903	150	0	-150
37	Western	1913	0	0	0
37	Western	1914	0	0	0
37	Western	1915	0	0	0
37	Western	1916	0	0	0
37	Western	1917	0	0	0
37	Western	1919	0	0	0
37	Western	1920	0	0	0
37	Western	1922	0	0	0
37	Western	1924	0	0	0
37	Western	1925	0	0	0
37	Western	1926	0	0	0
37	Western	1928	0	0	0
37	Western	1929	0	0	0
37	Western	1930	0	0	0
37	Western	1931	0	0	0
37	Western	1932	0	0	0
37	Western	1933	0	0	0
37	Western	1934	0	0	0
37	Western	1935	0	0	0
37	Western	1936	0	0	0
37	Western	1937	0	0	0
37	Western	1938	0	0	0
37	Western	1939	2131374	1103757	-1027617
37	Western	1940	0	0	0
37	Western	1941	0	0	0
37	Western	1942	0	0	0
37	Western	1943	0	0	0
37	Western	1944	0	0	0
37	Western	1945	0	0	0
37	Western	1946	0	0	0
37	Western	1947	6000000	20400000	14400000
37	Western	1948	10543000	19160088	8617088
37	Western	1949	1600000	5400000	3800000
37	Western	1950	3768785	8000000	4231215
37	Western	1951	1640000	0	-1640000
37	Western	1952	730140	8000000	7269860
37	Western	1953	3100000	20000000	16900000
37	Western	1954	0	7700000	7700000
37	Western	1955	1271000	3788000	2517000
37	Western	1956	10150000	44000000	33850000
37	Western	1957	0	11750000	11750000
37	Western	1958	0	0	0
37	Western	1959	0	5800000	5800000
37	Western	1960	17500000	12805000	-4695000
37	Western	1961	6000000	4300000	-1700000
37	Western	1962	19013000	58000000	38987000
37	Western	1963	2500000	10000000	7500000
37	Western	1964	200000	14500000	14300000
37	Western	1965	4400000	35681540	31281540
37	Western	1966	5928000	12017277	6089277
37	Western	1967	7860000	18000000	10140000
